{
  "from": "https://api.themoviedb.org/3/movie/popular?api_key=9ac4466dcf069ac63db44c560c9e8731&language=pt-BR",
  "page": 1,
  "total_results": 19850,
  "total_pages": 993,
  "results": [
    {
      "vote_count": 843,
      "id": 420817,
      "video": false,
      "vote_average": 7.2,
      "title": "Aladdin",
      "popularity": 445.349,
      "poster_path": "/Am3uZnecSiIqJt4EzKmDhqM3yWZ.jpg",
      "original_language": "en",
      "original_title": "Aladdin",
      "genre_ids": [
        12,
        14,
        10749,
        35,
        10751
      ],
      "backdrop_path": "/v4yVTbbl8dE1UP2dWu5CLyaXOku.jpg",
      "adult": false,
      "overview": "Um jovem humilde descobre uma lâmpada mágica, com um gênio que pode lhe conceder desejos. Agora o rapaz quer conquistar a moça por quem se apaixonou, mas o que ele não sabe é que a jovem é uma princesa que está prestes a se noivar. Agora, com a ajuda do Gênio (Will Smith), ele tenta se passar por um príncipe e para conquistar o amor da moça e a confiança de seu pai.",
      "release_date": "2019-05-22"
    },
    {
      "vote_count": 5224,
      "id": 299537,
      "video": false,
      "vote_average": 7.1,
      "title": "Capitã Marvel",
      "popularity": 399.859,
      "poster_path": "/hVgLHgnsO46oSHJy5I4ekhqtoYv.jpg",
      "original_language": "en",
      "original_title": "Captain Marvel",
      "genre_ids": [
        28,
        12,
        878
      ],
      "backdrop_path": "/w2PMyoyLU22YvrGK3smVM9fW1jj.jpg",
      "adult": false,
      "overview": "A história segue Carol Danvers e como ela se torna um dos heróis mais poderosos do universo quando a Terra é pega no meio de uma guerra galáctica entre duas raças alienígenas. Situado na década de 1990, Capitã Marvel é uma nova aventura de um período inédito na história do universo cinematográfico da Marvel.",
      "release_date": "2019-03-06"
    },
    {
      "vote_count": 742,
      "id": 458156,
      "video": false,
      "vote_average": 7.3,
      "title": "John Wick 3 - Parabellum",
      "popularity": 276.153,
      "poster_path": "/eDIxIvpBm5MsHuafEEmCQIKfG4u.jpg",
      "original_language": "en",
      "original_title": "John Wick: Chapter 3 – Parabellum",
      "genre_ids": [
        80,
        28,
        53
      ],
      "backdrop_path": "/vVpEOvdxVBP2aV166j5Xlvb5Cdc.jpg",
      "adult": false,
      "overview": "Após assassinar o chefe da máfia Santino D'Antonio (Riccardo Scamarcio) no Hotel Continental, John Wick (Keanu Reeves) passa a ser perseguido pelos membros da Alta Cúpula sob a recompensa de U$14 milhões. Agora, ele precisa unir forças com antigos parceiros que o ajudaram no passado enquanto luta por sua sobrevivência. by xilften.net",
      "release_date": "2019-05-15"
    },
    {
      "vote_count": 6293,
      "id": 299534,
      "video": false,
      "vote_average": 8.5,
      "title": "Vingadores: Ultimato",
      "popularity": 193.516,
      "poster_path": "/q6725aR8Zs4IwGMXzZT8aC8lh41.jpg",
      "original_language": "en",
      "original_title": "Avengers: Endgame",
      "genre_ids": [
        12,
        878,
        28
      ],
      "backdrop_path": "/7RyHsO4yDXtBv1zUU3mTpHeQ0d5.jpg",
      "adult": false,
      "overview": "Após os eventos devastadores de Vingadores: Guerra Infinita, o universo está em ruínas devido aos esforços do Titã Louco, Thanos. Com a ajuda de aliados remanescentes, os Vingadores devem se reunir mais uma vez a fim de desfazer as ações de Thanos e restaurar a ordem no universo de uma vez por todas, não importando as consequências.",
      "release_date": "2019-04-24"
    },
    {
      "vote_count": 108,
      "id": 373571,
      "video": false,
      "vote_average": 6.4,
      "title": "Godzilla II: Rei dos Monstros",
      "popularity": 164.072,
      "poster_path": "/z6JxhQnpxVz6rfFHbAL8MWFaiPL.jpg",
      "original_language": "en",
      "original_title": "Godzilla: King of the Monsters",
      "genre_ids": [
        28,
        878,
        53
      ],
      "backdrop_path": "/xKegQODedwQlELAn0uDSe5xMmew.jpg",
      "adult": false,
      "overview": "A nova história segue os esforços heróicos da agência de criptografia zoológico Monarch como seus membros enfrentam uma bateria de monstros do tamanho de Deus, incluindo o poderoso Godzilla, que colide com Mothra, Rodan e seu inimigo final, o rei de três cabeças Ghidorah. Quando essas antigas superespécies - pensadas como mitos - voltam a crescer, todas disputam a supremacia, deixando a própria existência da humanidade na balança.",
      "release_date": "2019-05-29"
    },
    {
      "vote_count": 1768,
      "id": 287947,
      "video": false,
      "vote_average": 7.1,
      "title": "Shazam!",
      "popularity": 138.149,
      "poster_path": "/wuicV3wiHje0Np1tb2AetTJLB9I.jpg",
      "original_language": "en",
      "original_title": "Shazam!",
      "genre_ids": [
        28,
        12,
        35,
        14
      ],
      "backdrop_path": "/bi4jh0Kt0uuZGsGJoUUfqmbrjQg.jpg",
      "adult": false,
      "overview": "Billy Batson (Asher Angel) tem apenas 14 anos de idade, mas recebeu de um antigo mago o dom de se transformar num super-herói adulto chamado Shazam (Zachary Levi). Ao gritar a palavra SHAZAM!, o adolescente se transforma nessa sua poderosa versão adulta para se divertir e testar suas habilidades. Contudo, ele precisa aprender a controlar seus poderes para enfrentar o malvado Dr. Thaddeus Sivana (Mark Strong).",
      "release_date": "2019-03-23"
    },
   ]
 }